{
  "file_generated_by": "FlutterFire CLI",
  "purpose": "FirebaseAppID & ProjectID for this Firebase app in this directory",
  "GOOGLE_APP_ID": "1:246953436176:ios:801b631f2af53a6b9a5695",
  "FIREBASE_PROJECT_ID": "rosctrl",
  "GCM_SENDER_ID": "246953436176"
}